﻿{
    "pages":[
       {
          "name":"page1",
          "elements":[
             {
                "type":"radiogroup",
                "name":"How large is your total farming area?",
                "imageLink":"",
                "choices":[
                   "< 5 ha",
                   "5 - 50 ha",
                   "> 50 ha",
                   "Prefer not to say"
                ]
             },
             {
                "type":"radiogroup",
                "name":"What crops do you produce in the actual season? Multiple selections possible.",
                "imageLink":"",
                "choices":[
                   "Maize",
                   "Wheat",
                   "Rice"
                ]
             }
          ],
          "title":"final",
          "description":""
       }
    ]
 }