{
    "pages": [
        {
            "name": "page1",
            "elements": [
                {
                    "type": "radiogroup",
                    "name": "dsdz",
                    "imageLink": "",
                    "choices": [
                        "zsc",
                        "xz     z",
                        "shsjs"
                    ]
                }
            ],
            "title": "zxcvbnm",
            "description": "asdfghjkl",
            "Author": "sahique"
        }
    ]
}