{
    "title": "Aflatoxin/Quiz 1",
    "user": "sahique_23012023",
    "answers": {
        "In which district/s is/are your farm/s located?": [
            " Kitui",
            " Machakos"
        ]
    }
}