<?xml version="1.0" encoding="UTF-8"?>
<!DOCTYPE svg PUBLIC "-//W3C//DTD SVG 1.1//EN" "http://www.w3.org/Graphics/SVG/1.1/DTD/svg11.dtd">
<svg version="1.2" width="280mm" height="210mm" viewBox="0 0 28000 21000" preserveAspectRatio="xMidYMid" fill-rule="evenodd" stroke-width="28.222" stroke-linejoin="round" xmlns="http://www.w3.org/2000/svg" xmlns:ooo="http://xml.openoffice.org/svg/export" xmlns:xlink="http://www.w3.org/1999/xlink" xmlns:presentation="http://sun.com/xmlns/staroffice/presentation" xmlns:smil="http://www.w3.org/2001/SMIL20/" xmlns:anim="urn:oasis:names:tc:opendocument:xmlns:animation:1.0" xml:space="preserve">
 <defs class="ClipPathGroup">
  <clipPath id="presentation_clip_path" clipPathUnits="userSpaceOnUse">
   <rect x="0" y="0" width="28000" height="21000"/>
  </clipPath>
  <clipPath id="presentation_clip_path_shrink" clipPathUnits="userSpaceOnUse">
   <rect x="28" y="21" width="27944" height="20958"/>
  </clipPath>
 </defs>
 <defs>
  <font id="EmbeddedFont_1" horiz-adv-x="2048">
   <font-face font-family="Sawasdee embedded" units-per-em="2048" font-weight="bold" font-style="normal" ascent="2355" descent="847"/>
   <missing-glyph horiz-adv-x="2048" d="M 0,0 L 2047,0 2047,2047 0,2047 0,0 Z"/>
   <glyph unicode="L" horiz-adv-x="954" d="M 1066,0 L 1066,154 302,154 302,1493 143,1493 143,0 1066,0 Z"/>
   <glyph unicode="F" horiz-adv-x="954" d="M 1003,938 L 302,938 302,1339 1066,1339 1066,1493 143,1493 143,0 302,0 302,784 1003,784 1003,938 Z"/>
   <glyph unicode="A" horiz-adv-x="1377" d="M 453,598 L 694,1110 938,598 453,598 Z M 380,444 L 1000,444 1188,2 1359,2 692,1508 25,2 195,2 380,444 Z"/>
   <glyph unicode=" " horiz-adv-x="714"/>
  </font>
 </defs>
 <defs class="TextShapeIndex">
  <g ooo:slide="id1" ooo:id-list="id3 id4 id5 id6 id7 id8 id9 id10 id11 id12 id13 id14 id15 id16"/>
 </defs>
 <defs class="EmbeddedBulletChars">
  <g id="bullet-char-template-57356" transform="scale(0.00048828125,-0.00048828125)">
   <path d="M 580,1141 L 1163,571 580,0 -4,571 580,1141 Z"/>
  </g>
  <g id="bullet-char-template-57354" transform="scale(0.00048828125,-0.00048828125)">
   <path d="M 8,1128 L 1137,1128 1137,0 8,0 8,1128 Z"/>
  </g>
  <g id="bullet-char-template-10146" transform="scale(0.00048828125,-0.00048828125)">
   <path d="M 174,0 L 602,739 174,1481 1456,739 174,0 Z M 1358,739 L 309,1346 659,739 1358,739 Z"/>
  </g>
  <g id="bullet-char-template-10132" transform="scale(0.00048828125,-0.00048828125)">
   <path d="M 2015,739 L 1276,0 717,0 1260,543 174,543 174,936 1260,936 717,1481 1274,1481 2015,739 Z"/>
  </g>
  <g id="bullet-char-template-10007" transform="scale(0.00048828125,-0.00048828125)">
   <path d="M 0,-2 C -7,14 -16,27 -25,37 L 356,567 C 262,823 215,952 215,954 215,979 228,992 255,992 264,992 276,990 289,987 310,991 331,999 354,1012 L 381,999 492,748 772,1049 836,1024 860,1049 C 881,1039 901,1025 922,1006 886,937 835,863 770,784 769,783 710,716 594,584 L 774,223 C 774,196 753,168 711,139 L 727,119 C 717,90 699,76 672,76 641,76 570,178 457,381 L 164,-76 C 142,-110 111,-127 72,-127 30,-127 9,-110 8,-76 1,-67 -2,-52 -2,-32 -2,-23 -1,-13 0,-2 Z"/>
  </g>
  <g id="bullet-char-template-10004" transform="scale(0.00048828125,-0.00048828125)">
   <path d="M 285,-33 C 182,-33 111,30 74,156 52,228 41,333 41,471 41,549 55,616 82,672 116,743 169,778 240,778 293,778 328,747 346,684 L 369,508 C 377,444 397,411 428,410 L 1163,1116 C 1174,1127 1196,1133 1229,1133 1271,1133 1292,1118 1292,1087 L 1292,965 C 1292,929 1282,901 1262,881 L 442,47 C 390,-6 338,-33 285,-33 Z"/>
  </g>
  <g id="bullet-char-template-9679" transform="scale(0.00048828125,-0.00048828125)">
   <path d="M 813,0 C 632,0 489,54 383,161 276,268 223,411 223,592 223,773 276,916 383,1023 489,1130 632,1184 813,1184 992,1184 1136,1130 1245,1023 1353,916 1407,772 1407,592 1407,412 1353,268 1245,161 1136,54 992,0 813,0 Z"/>
  </g>
  <g id="bullet-char-template-8226" transform="scale(0.00048828125,-0.00048828125)">
   <path d="M 346,457 C 273,457 209,483 155,535 101,586 74,649 74,723 74,796 101,859 155,911 209,963 273,989 346,989 419,989 480,963 531,910 582,859 608,796 608,723 608,648 583,586 532,535 482,483 420,457 346,457 Z"/>
  </g>
  <g id="bullet-char-template-8211" transform="scale(0.00048828125,-0.00048828125)">
   <path d="M -4,459 L 1135,459 1135,606 -4,606 -4,459 Z"/>
  </g>
  <g id="bullet-char-template-61548" transform="scale(0.00048828125,-0.00048828125)">
   <path d="M 173,740 C 173,903 231,1043 346,1159 462,1274 601,1332 765,1332 928,1332 1067,1274 1183,1159 1299,1043 1357,903 1357,740 1357,577 1299,437 1183,322 1067,206 928,148 765,148 601,148 462,206 346,322 231,437 173,577 173,740 Z"/>
  </g>
 </defs>
 <g>
  <g id="id2" class="Master_Slide">
   <g id="bg-id2" class="Background"/>
   <g id="bo-id2" class="BackgroundObjects"/>
  </g>
 </g>
 <g class="SlideGroup">
  <g>
   <g id="container-id1">
    <g id="id1" class="Slide" clip-path="url(#presentation_clip_path)">
     <g class="Page">
      <g class="com.sun.star.drawing.CustomShape">
       <g id="id3">
        <rect class="BoundingBox" stroke="none" fill="none" x="2716" y="5867" width="24113" height="10087"/>
        <text class="TextShape"><tspan class="TextParagraph" font-family="Sawasdee" font-size="8324px" font-weight="700"><tspan class="TextPosition" x="2970" y="13998"><tspan fill="rgb(0,0,0)" stroke="none">AFL A</tspan></tspan></tspan></text>
       </g>
      </g>
      <g class="com.sun.star.drawing.CustomShape">
       <g id="id4">
        <rect class="BoundingBox" stroke="none" fill="none" x="2388" y="5414" width="24113" height="10087"/>
        <text class="TextShape"><tspan class="TextParagraph" font-family="Sawasdee" font-size="8324px" font-weight="700"><tspan class="TextPosition" x="2642" y="13545"><tspan fill="rgb(201,156,0)" stroke="none">AFL A</tspan></tspan></tspan></text>
       </g>
      </g>
      <g class="com.sun.star.drawing.LineShape">
       <g id="id5">
        <rect class="BoundingBox" stroke="none" fill="none" x="17076" y="5459" width="5681" height="11792"/>
        <path fill="none" stroke="rgb(0,0,0)" stroke-width="1000" stroke-linejoin="round" stroke-linecap="round" d="M 17577,16750 L 22256,5960"/>
       </g>
      </g>
      <g class="com.sun.star.drawing.LineShape">
       <g id="id6">
        <rect class="BoundingBox" stroke="none" fill="none" x="1081" y="5459" width="21629" height="1002"/>
        <path fill="none" stroke="rgb(0,0,0)" stroke-width="1000" stroke-linejoin="round" stroke-linecap="round" d="M 1582,5960 L 22208,5960"/>
       </g>
      </g>
      <g class="com.sun.star.drawing.LineShape">
       <g id="id7">
        <rect class="BoundingBox" stroke="none" fill="none" x="17315" y="16250" width="9636" height="1001"/>
        <path fill="none" stroke="rgb(0,0,0)" stroke-width="1000" stroke-linejoin="round" stroke-linecap="round" d="M 17816,16750 L 26450,16750"/>
       </g>
      </g>
      <g class="com.sun.star.drawing.LineShape">
       <g id="id8">
        <rect class="BoundingBox" stroke="none" fill="none" x="700" y="5084" width="21628" height="1002"/>
        <path fill="none" stroke="rgb(201,156,0)" stroke-width="1000" stroke-linejoin="round" stroke-linecap="round" d="M 1200,5585 L 21826,5585"/>
       </g>
      </g>
      <g class="com.sun.star.drawing.LineShape">
       <g id="id9">
        <rect class="BoundingBox" stroke="none" fill="none" x="16933" y="15874" width="9637" height="1002"/>
        <path fill="none" stroke="rgb(201,156,0)" stroke-width="1000" stroke-linejoin="round" stroke-linecap="round" d="M 17434,16375 L 26068,16375"/>
       </g>
      </g>
      <g class="com.sun.star.drawing.LineShape">
       <g id="id10">
        <rect class="BoundingBox" stroke="none" fill="none" x="17476" y="5576" width="5681" height="11792"/>
        <path fill="none" stroke="rgb(0,0,0)" stroke-width="1000" stroke-linejoin="round" stroke-linecap="round" d="M 17977,16867 L 22656,6077"/>
       </g>
      </g>
      <g class="com.sun.star.drawing.LineShape">
       <g id="id11">
        <rect class="BoundingBox" stroke="none" fill="none" x="1481" y="5576" width="21629" height="1002"/>
        <path fill="none" stroke="rgb(0,0,0)" stroke-width="1000" stroke-linejoin="round" stroke-linecap="round" d="M 1982,6077 L 22608,6077"/>
       </g>
      </g>
      <g class="com.sun.star.drawing.LineShape">
       <g id="id12">
        <rect class="BoundingBox" stroke="none" fill="none" x="16894" y="5084" width="5682" height="11792"/>
        <path fill="none" stroke="rgb(201,156,0)" stroke-width="1000" stroke-linejoin="round" stroke-linecap="round" d="M 17395,16375 L 22074,5585"/>
       </g>
      </g>
      <g class="com.sun.star.drawing.LineShape">
       <g id="id13">
        <rect class="BoundingBox" stroke="none" fill="none" x="17715" y="16367" width="9636" height="1001"/>
        <path fill="none" stroke="rgb(0,0,0)" stroke-width="1000" stroke-linejoin="round" stroke-linecap="round" d="M 18216,16867 L 26850,16867"/>
       </g>
      </g>
      <g class="com.sun.star.drawing.LineShape">
       <g id="id14">
        <rect class="BoundingBox" stroke="none" fill="none" x="17094" y="5201" width="5682" height="11792"/>
        <path fill="none" stroke="rgb(201,156,0)" stroke-width="1000" stroke-linejoin="round" stroke-linecap="round" d="M 17595,16492 L 22274,5702"/>
       </g>
      </g>
      <g class="com.sun.star.drawing.LineShape">
       <g id="id15">
        <rect class="BoundingBox" stroke="none" fill="none" x="1100" y="5201" width="21628" height="1002"/>
        <path fill="none" stroke="rgb(201,156,0)" stroke-width="1000" stroke-linejoin="round" stroke-linecap="round" d="M 1600,5702 L 22226,5702"/>
       </g>
      </g>
      <g class="com.sun.star.drawing.LineShape">
       <g id="id16">
        <rect class="BoundingBox" stroke="none" fill="none" x="17333" y="15991" width="9637" height="1002"/>
        <path fill="none" stroke="rgb(201,156,0)" stroke-width="1000" stroke-linejoin="round" stroke-linecap="round" d="M 17834,16492 L 26468,16492"/>
       </g>
      </g>
     </g>
    </g>
   </g>
  </g>
 </g>
</svg>